 4 1 -0.0024 0 100 518.67 642.7 1590.45 1414.5 14.62 21.61 552.89 2388.11 9049.27 1.3 47.55 521.97 2388.12 8134.9 8.4948 0.03 394 2388 100 38.94 23.3186
 4 2 -0.0002 0.0005 100 518.67 642.12 1589.07 1403.38 14.62 21.61 552.38 2388.07 9051.41 1.3 47.35 521.92 2388.07 8136.23 8.4577 0.03 391 2388 100 38.83 23.2775
 4 3 0.0021 0 100 518.67 642.52 1587.26 1407.99 14.62 21.61 553.67 2388.03 9055 1.3 47.46 521.74 2388.14 8130.68 8.4426 0.03 393 2388 100 38.96 23.3155
 4 4 -0.0005 -0.0001 100 518.67 641.99 1599.57 1406.37 14.62 21.61 553.52 2388.04 9049.51 1.3 47.56 521.9 2388.09 8129.1 8.3996 0.03 392 2388 100 38.93 23.2688
 4 5 0.0003 0.0004 100 518.67 642.4 1593.64 1411.52 14.62 21.61 553.42 2388.07 9048.09 1.3 47.51 521.97 2388.1 8130.44 8.4418 0.03 394 2388 100 38.9 23.2533
 4 6 0.0008 0.0001 100 518.67 642.61 1588.52 1408.09 14.62 21.61 554.47 2388.09 9055.05 1.3 47.52 521.52 2388.05 8134.16 8.4426 0.03 393 2388 100 38.96 23.2385
 4 7 0.0032 -0.0003 100 518.67 642.33 1588.62 1404.66 14.62 21.61 553.7 2388.13 9055.8 1.3 47.46 521.86 2388.05 8132.21 8.4814 0.03 394 2388 100 38.73 23.3174
 4 8 0.0009 -0.0002 100 518.67 643.1 1592.47 1405.8 14.62 21.61 553.86 2388.13 9051.19 1.3 47.53 522.05 2388.11 8134.33 8.4287 0.03 393 2388 100 38.83 23.3041
 4 9 0.0005 -0.0004 100 518.67 642.09 1585.1 1401.83 14.62 21.61 553.31 2388.11 9049.87 1.3 47.43 521.17 2388.09 8134.4 8.411 0.03 392 2388 100 38.79 23.3025
 4 10 -0.003 0.0003 100 518.67 642.23 1592.46 1405.43 14.62 21.61 552.93 2388.12 9057.12 1.3 47.32 521.97 2388.11 8136.47 8.4059 0.03 393 2388 100 38.82 23.406
 4 11 0.0004 0.0005 100 518.67 642.68 1596.53 1407.63 14.62 21.61 553.73 2388.14 9048.73 1.3 47.3 522.13 2388.13 8126.56 8.4595 0.03 395 2388 100 38.86 23.2093
 4 12 -0.0018 0.0002 100 518.67 642.52 1588.23 1401.11 14.62 21.61 553.39 2388.13 9053.55 1.3 47.4 521.71 2388.12 8130.8 8.4318 0.03 392 2388 100 38.98 23.312
 4 13 -0.002 -0.0003 100 518.67 642.45 1587.5 1410.43 14.62 21.61 554.58 2388.1 9056.4 1.3 47.5 522.05 2388.06 8131.92 8.4332 0.03 394 2388 100 38.91 23.3492
 4 14 -0.003 0.0004 100 518.67 641.86 1583.46 1406.59 14.62 21.61 553.56 2388.13 9044.67 1.3 47.45 521.56 2388.14 8128.34 8.4043 0.03 392 2388 100 38.85 23.3888
 4 15 0.0012 -0.0001 100 518.67 643.28 1589.08 1408.86 14.62 21.61 553.51 2388.09 9053.38 1.3 47.26 522.01 2388.08 8129.99 8.4304 0.03 392 2388 100 38.87 23.3024
 4 16 0 0.0003 100 518.67 642.44 1589.55 1405.33 14.62 21.61 553.21 2388.11 9053.21 1.3 47.43 521.68 2388.15 8136.76 8.4487 0.03 392 2388 100 38.8 23.2557
 4 17 -0.0031 -0.0003 100 518.67 642.7 1590.55 1410.3 14.62 21.61 553.2 2388.09 9048.41 1.3 47.55 521.25 2388.08 8134.84 8.4296 0.03 392 2388 100 39.16 23.3343
 4 18 -0.0017 0 100 518.67 642.55 1587.06 1407.43 14.62 21.61 554.3 2388.13 9052.7 1.3 47.51 521.59 2388.17 8137.41 8.4109 0.03 391 2388 100 38.88 23.3594
 4 19 -0.0005 0 100 518.67 642.78 1585.18 1401.18 14.62 21.61 554.18 2388.12 9044.73 1.3 47.42 521.6 2388.09 8124.23 8.4117 0.03 392 2388 100 38.91 23.246
 4 20 -0.0007 0.0002 100 518.67 642.26 1585.93 1407.31 14.62 21.61 554.46 2388.13 9052.03 1.3 47.45 521.71 2388.1 8130.75 8.4289 0.03 394 2388 100 38.98 23.4508
 4 21 0.0051 0.0002 100 518.67 642.37 1583.29 1403.55 14.62 21.61 554.06 2388.06 9055.13 1.3 47.49 521.64 2388.1 8133.99 8.4256 0.03 391 2388 100 38.77 23.4117
 4 22 0.0047 -0.0003 100 518.67 642.31 1586.09 1401.36 14.62 21.61 553.15 2388.07 9050.35 1.3 47.45 521.78 2388.11 8139.43 8.4327 0.03 394 2388 100 38.84 23.2279
 4 23 0.0004 -0.0002 100 518.67 642.54 1588.52 1408.87 14.62 21.61 552.83 2388.11 9054.17 1.3 47.52 521.95 2388.11 8130.63 8.4058 0.03 393 2388 100 38.84 23.3734
 4 24 -0.0034 0.0001 100 518.67 642.68 1594.24 1412.16 14.62 21.61 553.53 2388.13 9049.87 1.3 47.41 521.21 2388.11 8130.94 8.4263 0.03 393 2388 100 38.69 23.2542
 4 25 0.0015 0.0005 100 518.67 642.58 1587.81 1401.36 14.62 21.61 553.23 2388.07 9052.59 1.3 47.42 521.41 2388.1 8133.95 8.4376 0.03 394 2388 100 38.87 23.2018
 4 26 -0.0036 -0.0001 100 518.67 642.53 1589.18 1405.65 14.62 21.61 553.27 2388.11 9046.29 1.3 47.53 521.76 2388.1 8132.46 8.4072 0.03 393 2388 100 38.94 23.3275
 4 27 0.0013 0.0005 100 518.67 642.41 1594.04 1404.03 14.62 21.61 553.91 2388.07 9050.59 1.3 47.32 521.37 2388.12 8133.34 8.4357 0.03 393 2388 100 38.94 23.2956
 4 28 -0.0041 -0.0001 100 518.67 642.8 1582.96 1408.18 14.62 21.61 554.17 2388.06 9052.27 1.3 47.46 521.71 2388.1 8134.19 8.432 0.03 394 2388 100 38.81 23.3271
 4 29 0.0025 -0.0002 100 518.67 642.5 1592.92 1405.07 14.62 21.61 553.72 2388.07 9051.96 1.3 47.21 521.35 2388.1 8137.92 8.4201 0.03 393 2388 100 38.89 23.238
 4 30 0.0001 -0.0004 100 518.67 642.8 1601.27 1405.96 14.62 21.61 553.25 2388.06 9051.46 1.3 47.34 521.32 2388.1 8128.48 8.4337 0.03 395 2388 100 39.02 23.3166
 4 31 0.0005 -0.0004 100 518.67 642.35 1586.24 1406.97 14.62 21.61 553.63 2388.05 9050.21 1.3 47.39 521.38 2388.07 8125.78 8.4828 0.03 394 2388 100 39.1 23.2288
 4 32 0.0013 0.0001 100 518.67 642.55 1587.72 1410.7 14.62 21.61 553.09 2388.07 9047.14 1.3 47.69 521.68 2388.15 8130.83 8.4234 0.03 394 2388 100 38.89 23.2967
 4 33 0.0035 0.0005 100 518.67 642.48 1584.85 1408.46 14.62 21.61 553.81 2388.06 9051.5 1.3 47.43 521.55 2388.1 8129.22 8.3771 0.03 393 2388 100 38.61 23.4327
 4 34 -0.0033 -0.0004 100 518.67 642.55 1589.36 1406.14 14.62 21.61 553.2 2388.08 9048.72 1.3 47.49 521.87 2388.11 8139.16 8.4529 0.03 391 2388 100 38.96 23.3455
 4 35 0.0029 0.0003 100 518.67 642.64 1592.7 1407.58 14.62 21.61 553.45 2388.11 9049.74 1.3 47.54 521.64 2388.1 8135.83 8.4637 0.03 392 2388 100 38.84 23.355
 4 36 0.003 0.0002 100 518.67 642.27 1586.57 1407.64 14.62 21.61 553.74 2388.06 9049.1 1.3 47.46 521.63 2388.12 8135.53 8.4291 0.03 392 2388 100 38.86 23.3249
 4 37 -0.0016 0 100 518.67 642.73 1594.6 1411.46 14.62 21.61 553.57 2388.1 9060.16 1.3 47.51 521.36 2388.13 8136.17 8.4424 0.03 394 2388 100 38.9 23.2698
 4 38 -0.0002 -0.0003 100 518.67 642.4 1589.64 1410.19 14.62 21.61 553.72 2388.1 9051.55 1.3 47.57 521.8 2388.12 8131.62 8.4058 0.03 394 2388 100 38.86 23.3386
 4 39 0 -0.0002 100 518.67 642.92 1589.46 1406.3 14.62 21.61 553.95 2388.04 9057.12 1.3 47.61 521.54 2388.09 8133.33 8.4552 0.03 394 2388 100 38.79 23.3074
 4 40 -0.0012 -0.0003 100 518.67 642.96 1580.59 1409.47 14.62 21.61 553.04 2388.05 9050.1 1.3 47.68 521.36 2388.05 8129.4 8.4447 0.03 393 2388 100 39 23.4309
 4 41 -0.0012 0.0002 100 518.67 642.78 1589.46 1411.13 14.62 21.61 553.2 2388.09 9053.7 1.3 47.61 521.38 2388.09 8132.75 8.437 0.03 394 2388 100 38.98 23.2859
 4 42 0.0009 -0.0001 100 518.67 642.95 1588.11 1409.91 14.62 21.61 553.75 2388.09 9046.73 1.3 47.64 521.33 2388.09 8130.73 8.3955 0.03 393 2388 100 39.05 23.3693
 4 43 -0.001 -0.0002 100 518.67 642.61 1585.7 1407.3 14.62 21.61 553.37 2388.1 9057.32 1.3 47.29 521.43 2388.09 8131.84 8.4247 0.03 391 2388 100 38.82 23.2283
 4 44 0.0025 -0.0003 100 518.67 642.79 1584.41 1405.23 14.62 21.61 552.55 2388.05 9056.11 1.3 47.41 521.92 2388.08 8138.24 8.3985 0.03 394 2388 100 38.91 23.303
 4 45 -0.0032 0.0004 100 518.67 642.92 1583.83 1408.17 14.62 21.61 553.48 2388.05 9047.04 1.3 47.37 521.63 2388.05 8131.24 8.4446 0.03 393 2388 100 38.9 23.3269
 4 46 0.0017 0.0004 100 518.67 642.33 1590.23 1408.8 14.62 21.61 553.29 2388.14 9050.55 1.3 47.36 521.63 2388.08 8131.86 8.4834 0.03 392 2388 100 38.73 23.3485
 4 47 -0.0001 0.0005 100 518.67 642.44 1596.02 1407.56 14.62 21.61 553.28 2388.16 9055.75 1.3 47.5 521.78 2388.11 8131.13 8.437 0.03 394 2388 100 38.89 23.2634
 4 48 0.0014 -0.0002 100 518.67 642.63 1586 1407.35 14.62 21.61 553.2 2388.09 9054.46 1.3 47.49 521.45 2388.1 8135.48 8.436 0.03 392 2388 100 38.87 23.3751
 4 49 -0.0017 0.0003 100 518.67 642.26 1591.37 1419.16 14.62 21.61 553.8 2388.11 9051.67 1.3 47.45 521.24 2388.07 8131.69 8.4386 0.03 393 2388 100 38.84 23.3816
 4 50 0.0019 0.0005 100 518.67 642.57 1598.18 1407.07 14.62 21.61 553.45 2388.05 9056.13 1.3 47.48 521.22 2388.05 8137.1 8.4526 0.03 393 2388 100 38.95 23.3067
 4 51 -0.0021 0.0002 100 518.67 642.35 1580.12 1401.99 14.62 21.61 553.54 2388.04 9054.47 1.3 47.63 521.45 2388.16 8133.94 8.4364 0.03 392 2388 100 38.92 23.2854
 4 52 0 -0.0003 100 518.67 642.59 1593.95 1408.72 14.62 21.61 553.91 2388.14 9052.84 1.3 47.29 521.22 2388.05 8132.39 8.4769 0.03 393 2388 100 38.97 23.3498
 4 53 -0.0001 0.0003 100 518.67 642.74 1592.2 1405.84 14.62 21.61 553.72 2388.13 9047.54 1.3 47.48 521.37 2388.12 8131.83 8.4256 0.03 394 2388 100 38.89 23.1968
 4 54 -0.0006 -0.0002 100 518.67 642.83 1592.24 1407.11 14.62 21.61 553.98 2388.1 9050.96 1.3 47.4 521.33 2388.09 8133.81 8.4428 0.03 393 2388 100 38.72 23.2999
 4 55 0.0008 0.0004 100 518.67 642.5 1594.62 1410.64 14.62 21.61 554.14 2388.12 9050.38 1.3 47.72 521.75 2388.07 8133.97 8.4369 0.03 393 2388 100 38.97 23.2515
 4 56 0.0042 0.0003 100 518.67 642.77 1588.56 1404.82 14.62 21.61 553.82 2388.09 9060.73 1.3 47.49 521.13 2388.12 8131.3 8.4542 0.03 394 2388 100 38.93 23.2754
 4 57 0.0009 -0.0003 100 518.67 642.95 1595.78 1404.81 14.62 21.61 552.98 2388.13 9058.32 1.3 47.39 522.06 2388.12 8131.6 8.4435 0.03 392 2388 100 38.7 23.3028
 4 58 -0.0018 0.0001 100 518.67 642.19 1584.35 1403.19 14.62 21.61 553.96 2388.12 9051.5 1.3 47.44 521.58 2388.07 8135.24 8.4056 0.03 393 2388 100 38.85 23.3142
 4 59 0.0006 -0.0004 100 518.67 643.14 1585.56 1403.58 14.62 21.61 553.72 2388.12 9054.75 1.3 47.56 521.14 2388.03 8131.96 8.4323 0.03 394 2388 100 38.76 23.2906
 4 60 0.0022 -0.0002 100 518.67 642.49 1586.34 1408.25 14.62 21.61 553.94 2388.14 9050.5 1.3 47.49 521.75 2388.16 8134.03 8.4255 0.03 394 2388 100 38.83 23.4045
 4 61 -0.0002 0.0001 100 518.67 642.49 1587.14 1408.74 14.62 21.61 553.21 2388.12 9051.07 1.3 47.49 521.86 2388.06 8128.92 8.4674 0.03 393 2388 100 38.91 23.4178
 4 62 -0.0038 -0.0004 100 518.67 642.23 1590.65 1413.13 14.62 21.61 553.89 2388.11 9043.82 1.3 47.54 521.6 2388.11 8130.94 8.4347 0.03 393 2388 100 38.7 23.2577
 4 63 0.0025 -0.0001 100 518.67 642.36 1590.16 1404.55 14.62 21.61 552.96 2388.07 9054.02 1.3 47.52 521.37 2388.09 8131.02 8.431 0.03 393 2388 100 38.85 23.3229
 4 64 -0.0019 -0.0004 100 518.67 643.15 1583.36 1408.39 14.62 21.61 553.93 2388.09 9053.14 1.3 47.5 521.42 2388.1 8127.91 8.4378 0.03 393 2388 100 38.73 23.3063
 4 65 -0.0031 0.0001 100 518.67 642.55 1591.9 1408.51 14.62 21.61 553.66 2388.06 9049.79 1.3 47.5 521.43 2388.11 8129.89 8.4082 0.03 393 2388 100 38.81 23.3014
 4 66 0.001 0.0003 100 518.67 642.37 1585.22 1405.81 14.62 21.61 553.67 2388.11 9045.26 1.3 47.57 521.2 2388.14 8133.09 8.4545 0.03 394 2388 100 38.63 23.374
 4 67 -0.0034 -0.0002 100 518.67 642.49 1586.25 1404.76 14.62 21.61 553.93 2388.09 9046.91 1.3 47.52 521.66 2388.07 8132.15 8.4519 0.03 393 2388 100 38.98 23.3668
 4 68 -0.0014 0 100 518.67 642.28 1584.68 1406.56 14.62 21.61 552.75 2388.07 9048.23 1.3 47.26 521.27 2388.09 8133.78 8.4337 0.03 392 2388 100 38.7 23.3804
